%YAML 1.1
%TAG !u! tag:unity3d.com,2011:
--- !u!54 &1797139351883023720
Rigidbody:
  m_ObjectHideFlags: 0
  m_CorrespondingSourceObject: {fileID: 0}
  m_PrefabInstance: {fileID: 0}
  m_PrefabAsset: {fileID: 0}
  m_GameObject: {fileID: 7522451872314136205}
  serializedVersion: 2
  m_Mass: 25
  m_Drag: 0.5
  m_AngularDrag: 0.15
  m_UseGravity: 1
  m_IsKinematic: 0
  m_Interpolate: 0
  m_Constraints: 0
  m_CollisionDetection: 0
--- !u!64 &6022716305958326748
MeshCollider:
  m_ObjectHideFlags: 0
  m_CorrespondingSourceObject: {fileID: 0}
  m_PrefabInstance: {fileID: 0}
  m_PrefabAsset: {fileID: 0}
  m_GameObject: {fileID: 7522451872314136205}
  m_Material: {fileID: 0}
  m_IsTrigger: 0
  m_Enabled: 1
  serializedVersion: 3
  m_Convex: 1
  m_CookingOptions: 30
  m_Mesh: {fileID: -2252909918924021680, guid: 5c417fad23c240942b6fea4e62fb818f, type: 3}
--- !u!1001 &1964962558080110468
PrefabInstance:
  m_ObjectHideFlags: 0
  serializedVersion: 2
  m_Modification:
    m_TransformParent: {fileID: 0}
    m_Modifications:
    - target: {fileID: -4216859302048453862, guid: 5c417fad23c240942b6fea4e62fb818f,
        type: 3}
      propertyPath: m_LocalPosition.x
      value: 0
      objectReference: {fileID: 0}
    - target: {fileID: -4216859302048453862, guid: 5c417fad23c240942b6fea4e62fb818f,
        type: 3}
      propertyPath: m_LocalPosition.y
      value: 0
      objectReference: {fileID: 0}
    - target: {fileID: -4216859302048453862, guid: 5c417fad23c240942b6fea4e62fb818f,
        type: 3}
      propertyPath: m_LocalPosition.z
      value: 0
      objectReference: {fileID: 0}
    - target: {fileID: -4216859302048453862, guid: 5c417fad23c240942b6fea4e62fb818f,
        type: 3}
      propertyPath: m_LocalRotation.x
      value: -0.7071068
      objectReference: {fileID: 0}
    - target: {fileID: -4216859302048453862, guid: 5c417fad23c240942b6fea4e62fb818f,
        type: 3}
      propertyPath: m_LocalRotation.y
      value: 0
      objectReference: {fileID: 0}
    - target: {fileID: -4216859302048453862, guid: 5c417fad23c240942b6fea4e62fb818f,
        type: 3}
      propertyPath: m_LocalRotation.z
      value: -0
      objectReference: {fileID: 0}
    - target: {fileID: -4216859302048453862, guid: 5c417fad23c240942b6fea4e62fb818f,
        type: 3}
      propertyPath: m_LocalRotation.w
      value: 0.7071067
      objectReference: {fileID: 0}
    - target: {fileID: -4216859302048453862, guid: 5c417fad23c240942b6fea4e62fb818f,
        type: 3}
      propertyPath: m_RootOrder
      value: 0
      objectReference: {fileID: 0}
    - target: {fileID: -4216859302048453862, guid: 5c417fad23c240942b6fea4e62fb818f,
        type: 3}
      propertyPath: m_LocalEulerAnglesHint.x
      value: 0
      objectReference: {fileID: 0}
    - target: {fileID: -4216859302048453862, guid: 5c417fad23c240942b6fea4e62fb818f,
        type: 3}
      propertyPath: m_LocalEulerAnglesHint.y
      value: 0
      objectReference: {fileID: 0}
    - target: {fileID: -4216859302048453862, guid: 5c417fad23c240942b6fea4e62fb818f,
        type: 3}
      propertyPath: m_LocalEulerAnglesHint.z
      value: 0
      objectReference: {fileID: 0}
    - target: {fileID: -4216859302048453862, guid: 5c417fad23c240942b6fea4e62fb818f,
        type: 3}
      propertyPath: m_LocalScale.x
      value: 20
      objectReference: {fileID: 0}
    - target: {fileID: -4216859302048453862, guid: 5c417fad23c240942b6fea4e62fb818f,
        type: 3}
      propertyPath: m_LocalScale.y
      value: 20
      objectReference: {fileID: 0}
    - target: {fileID: -4216859302048453862, guid: 5c417fad23c240942b6fea4e62fb818f,
        type: 3}
      propertyPath: m_LocalScale.z
      value: 20
      objectReference: {fileID: 0}
    - target: {fileID: -1504981713932161579, guid: 5c417fad23c240942b6fea4e62fb818f,
        type: 3}
      propertyPath: m_Materials.Array.data[1]
      value: 
      objectReference: {fileID: 2100000, guid: f092d4b1c65a0de48a9eeccf3b028700, type: 2}
    - target: {fileID: -1504981713932161579, guid: 5c417fad23c240942b6fea4e62fb818f,
        type: 3}
      propertyPath: m_Materials.Array.data[0]
      value: 
      objectReference: {fileID: 2100000, guid: 29c41d0ee776f5240982b03d08a638cf, type: 2}
    - target: {fileID: -927199367670048503, guid: 5c417fad23c240942b6fea4e62fb818f,
        type: 3}
      propertyPath: m_Name
      value: Generator prefab
      objectReference: {fileID: 0}
    m_RemovedComponents: []
  m_SourcePrefab: {fileID: 100100000, guid: 5c417fad23c240942b6fea4e62fb818f, type: 3}
--- !u!1 &7522451872314136205 stripped
GameObject:
  m_CorrespondingSourceObject: {fileID: -927199367670048503, guid: 5c417fad23c240942b6fea4e62fb818f,
    type: 3}
  m_PrefabInstance: {fileID: 1964962558080110468}
  m_PrefabAsset: {fileID: 0}
