%YAML 1.1
%TAG !u! tag:unity3d.com,2011:
--- !u!54 &-1581049748511360064
Rigidbody:
  m_ObjectHideFlags: 0
  m_CorrespondingSourceObject: {fileID: 0}
  m_PrefabInstance: {fileID: 0}
  m_PrefabAsset: {fileID: 0}
  m_GameObject: {fileID: 4953705749223870349}
  serializedVersion: 2
  m_Mass: 1
  m_Drag: 0.4
  m_AngularDrag: 0.2
  m_UseGravity: 1
  m_IsKinematic: 0
  m_Interpolate: 0
  m_Constraints: 0
  m_CollisionDetection: 0
--- !u!135 &8361068417087767536
SphereCollider:
  m_ObjectHideFlags: 0
  m_CorrespondingSourceObject: {fileID: 0}
  m_PrefabInstance: {fileID: 0}
  m_PrefabAsset: {fileID: 0}
  m_GameObject: {fileID: 4953705749223870349}
  m_Material: {fileID: 0}
  m_IsTrigger: 0
  m_Enabled: 1
  serializedVersion: 2
  m_Radius: 1.54
  m_Center: {x: 0, y: 0, z: 0}
--- !u!114 &-1328917713561224196
MonoBehaviour:
  m_ObjectHideFlags: 0
  m_CorrespondingSourceObject: {fileID: 0}
  m_PrefabInstance: {fileID: 0}
  m_PrefabAsset: {fileID: 0}
  m_GameObject: {fileID: 4953705749223870349}
  m_Enabled: 1
  m_EditorHideFlags: 0
  m_Script: {fileID: 11500000, guid: 7141e6b12d8e0454c889443949218a6c, type: 3}
  m_Name: 
  m_EditorClassIdentifier: 
  explosion: {fileID: 8393079596872685790, guid: 44b99134432fff84680158cf2da33b19,
    type: 3}
--- !u!1001 &4007909224700171908
PrefabInstance:
  m_ObjectHideFlags: 0
  serializedVersion: 2
  m_Modification:
    m_TransformParent: {fileID: 0}
    m_Modifications:
    - target: {fileID: -927199367670048503, guid: d034fdf00962f954d934919201c2c1f0,
        type: 3}
      propertyPath: m_Name
      value: c4_entity 1
      objectReference: {fileID: 0}
    - target: {fileID: -927199367670048503, guid: d034fdf00962f954d934919201c2c1f0,
        type: 3}
      propertyPath: m_Layer
      value: 10
      objectReference: {fileID: 0}
    - target: {fileID: -927199367670048503, guid: d034fdf00962f954d934919201c2c1f0,
        type: 3}
      propertyPath: m_TagString
      value: PlayerC4
      objectReference: {fileID: 0}
    - target: {fileID: -3897572604300545411, guid: d034fdf00962f954d934919201c2c1f0,
        type: 3}
      propertyPath: m_Layer
      value: 10
      objectReference: {fileID: 0}
    - target: {fileID: -1078962102086403854, guid: d034fdf00962f954d934919201c2c1f0,
        type: 3}
      propertyPath: m_Layer
      value: 10
      objectReference: {fileID: 0}
    - target: {fileID: -4216859302048453862, guid: d034fdf00962f954d934919201c2c1f0,
        type: 3}
      propertyPath: m_LocalPosition.x
      value: 0
      objectReference: {fileID: 0}
    - target: {fileID: -4216859302048453862, guid: d034fdf00962f954d934919201c2c1f0,
        type: 3}
      propertyPath: m_LocalPosition.y
      value: 0
      objectReference: {fileID: 0}
    - target: {fileID: -4216859302048453862, guid: d034fdf00962f954d934919201c2c1f0,
        type: 3}
      propertyPath: m_LocalPosition.z
      value: 0
      objectReference: {fileID: 0}
    - target: {fileID: -4216859302048453862, guid: d034fdf00962f954d934919201c2c1f0,
        type: 3}
      propertyPath: m_LocalRotation.x
      value: 0
      objectReference: {fileID: 0}
    - target: {fileID: -4216859302048453862, guid: d034fdf00962f954d934919201c2c1f0,
        type: 3}
      propertyPath: m_LocalRotation.y
      value: 0
      objectReference: {fileID: 0}
    - target: {fileID: -4216859302048453862, guid: d034fdf00962f954d934919201c2c1f0,
        type: 3}
      propertyPath: m_LocalRotation.z
      value: 0
      objectReference: {fileID: 0}
    - target: {fileID: -4216859302048453862, guid: d034fdf00962f954d934919201c2c1f0,
        type: 3}
      propertyPath: m_LocalRotation.w
      value: 1
      objectReference: {fileID: 0}
    - target: {fileID: -4216859302048453862, guid: d034fdf00962f954d934919201c2c1f0,
        type: 3}
      propertyPath: m_RootOrder
      value: 0
      objectReference: {fileID: 0}
    - target: {fileID: -4216859302048453862, guid: d034fdf00962f954d934919201c2c1f0,
        type: 3}
      propertyPath: m_LocalEulerAnglesHint.x
      value: 0
      objectReference: {fileID: 0}
    - target: {fileID: -4216859302048453862, guid: d034fdf00962f954d934919201c2c1f0,
        type: 3}
      propertyPath: m_LocalEulerAnglesHint.y
      value: 0
      objectReference: {fileID: 0}
    - target: {fileID: -4216859302048453862, guid: d034fdf00962f954d934919201c2c1f0,
        type: 3}
      propertyPath: m_LocalEulerAnglesHint.z
      value: 0
      objectReference: {fileID: 0}
    - target: {fileID: -6669416685233021481, guid: d034fdf00962f954d934919201c2c1f0,
        type: 3}
      propertyPath: m_Materials.Array.data[0]
      value: 
      objectReference: {fileID: 2100000, guid: c15465b4cbb7dd24da5b9408a4f83cbf, type: 2}
    - target: {fileID: 3313122374385275643, guid: d034fdf00962f954d934919201c2c1f0,
        type: 3}
      propertyPath: m_Layer
      value: 10
      objectReference: {fileID: 0}
    m_RemovedComponents: []
  m_SourcePrefab: {fileID: 100100000, guid: d034fdf00962f954d934919201c2c1f0, type: 3}
--- !u!1 &4953705749223870349 stripped
GameObject:
  m_CorrespondingSourceObject: {fileID: -927199367670048503, guid: d034fdf00962f954d934919201c2c1f0,
    type: 3}
  m_PrefabInstance: {fileID: 4007909224700171908}
  m_PrefabAsset: {fileID: 0}
