%YAML 1.1
%TAG !u! tag:unity3d.com,2011:
--- !u!1001 &8589909629394191101
PrefabInstance:
  m_ObjectHideFlags: 0
  serializedVersion: 2
  m_Modification:
    m_TransformParent: {fileID: 0}
    m_Modifications:
    - target: {fileID: 6859926764119328546, guid: ee390ee869b4e724fac2f274c19088ff,
        type: 3}
      propertyPath: m_Name
      value: C4 Midair
      objectReference: {fileID: 0}
    - target: {fileID: 8379178248996616172, guid: ee390ee869b4e724fac2f274c19088ff,
        type: 3}
      propertyPath: m_LocalPosition.x
      value: 0
      objectReference: {fileID: 0}
    - target: {fileID: 8379178248996616172, guid: ee390ee869b4e724fac2f274c19088ff,
        type: 3}
      propertyPath: m_LocalPosition.y
      value: 0
      objectReference: {fileID: 0}
    - target: {fileID: 8379178248996616172, guid: ee390ee869b4e724fac2f274c19088ff,
        type: 3}
      propertyPath: m_LocalPosition.z
      value: 0
      objectReference: {fileID: 0}
    - target: {fileID: 8379178248996616172, guid: ee390ee869b4e724fac2f274c19088ff,
        type: 3}
      propertyPath: m_LocalRotation.x
      value: -0
      objectReference: {fileID: 0}
    - target: {fileID: 8379178248996616172, guid: ee390ee869b4e724fac2f274c19088ff,
        type: 3}
      propertyPath: m_LocalRotation.y
      value: -0
      objectReference: {fileID: 0}
    - target: {fileID: 8379178248996616172, guid: ee390ee869b4e724fac2f274c19088ff,
        type: 3}
      propertyPath: m_LocalRotation.z
      value: -0
      objectReference: {fileID: 0}
    - target: {fileID: 8379178248996616172, guid: ee390ee869b4e724fac2f274c19088ff,
        type: 3}
      propertyPath: m_LocalRotation.w
      value: 1
      objectReference: {fileID: 0}
    - target: {fileID: 8379178248996616172, guid: ee390ee869b4e724fac2f274c19088ff,
        type: 3}
      propertyPath: m_RootOrder
      value: 0
      objectReference: {fileID: 0}
    - target: {fileID: 8379178248996616172, guid: ee390ee869b4e724fac2f274c19088ff,
        type: 3}
      propertyPath: m_LocalEulerAnglesHint.x
      value: 0
      objectReference: {fileID: 0}
    - target: {fileID: 8379178248996616172, guid: ee390ee869b4e724fac2f274c19088ff,
        type: 3}
      propertyPath: m_LocalEulerAnglesHint.y
      value: 0
      objectReference: {fileID: 0}
    - target: {fileID: 8379178248996616172, guid: ee390ee869b4e724fac2f274c19088ff,
        type: 3}
      propertyPath: m_LocalEulerAnglesHint.z
      value: 0
      objectReference: {fileID: 0}
    - target: {fileID: 1552376294481513952, guid: ee390ee869b4e724fac2f274c19088ff,
        type: 3}
      propertyPath: ShapeModule.type
      value: 0
      objectReference: {fileID: 0}
    - target: {fileID: 1552376294481513952, guid: ee390ee869b4e724fac2f274c19088ff,
        type: 3}
      propertyPath: CollisionModule.enabled
      value: 0
      objectReference: {fileID: 0}
    - target: {fileID: 1552376294481513952, guid: ee390ee869b4e724fac2f274c19088ff,
        type: 3}
      propertyPath: ShapeModule.radiusThickness
      value: 0
      objectReference: {fileID: 0}
    - target: {fileID: 1552376294481513952, guid: ee390ee869b4e724fac2f274c19088ff,
        type: 3}
      propertyPath: ForceModule.y.minScalar
      value: -10
      objectReference: {fileID: 0}
    - target: {fileID: 1552376294481513952, guid: ee390ee869b4e724fac2f274c19088ff,
        type: 3}
      propertyPath: EmissionModule.rateOverTime.scalar
      value: 200
      objectReference: {fileID: 0}
    - target: {fileID: 1552376294481513952, guid: ee390ee869b4e724fac2f274c19088ff,
        type: 3}
      propertyPath: ClampVelocityModule.enabled
      value: 0
      objectReference: {fileID: 0}
    - target: {fileID: 1552376294481513952, guid: ee390ee869b4e724fac2f274c19088ff,
        type: 3}
      propertyPath: ClampVelocityModule.magnitude.scalar
      value: 99
      objectReference: {fileID: 0}
    - target: {fileID: 1552376294481513952, guid: ee390ee869b4e724fac2f274c19088ff,
        type: 3}
      propertyPath: ClampVelocityModule.drag.scalar
      value: 0.05
      objectReference: {fileID: 0}
    - target: {fileID: 1552376294481513952, guid: ee390ee869b4e724fac2f274c19088ff,
        type: 3}
      propertyPath: InitialModule.startLifetime.scalar
      value: 4
      objectReference: {fileID: 0}
    - target: {fileID: 1552376294481513952, guid: ee390ee869b4e724fac2f274c19088ff,
        type: 3}
      propertyPath: InitialModule.startLifetime.minMaxState
      value: 3
      objectReference: {fileID: 0}
    - target: {fileID: 1552376294481513952, guid: ee390ee869b4e724fac2f274c19088ff,
        type: 3}
      propertyPath: InitialModule.startLifetime.minScalar
      value: 0.2
      objectReference: {fileID: 0}
    - target: {fileID: 1552376294481513952, guid: ee390ee869b4e724fac2f274c19088ff,
        type: 3}
      propertyPath: InitialModule.startSpeed.minScalar
      value: 10
      objectReference: {fileID: 0}
    - target: {fileID: 1552376294481513952, guid: ee390ee869b4e724fac2f274c19088ff,
        type: 3}
      propertyPath: InitialModule.startSpeed.scalar
      value: 30
      objectReference: {fileID: 0}
    - target: {fileID: 1552376294481513952, guid: ee390ee869b4e724fac2f274c19088ff,
        type: 3}
      propertyPath: ForceModule.y.scalar
      value: -2
      objectReference: {fileID: 0}
    - target: {fileID: 1552376294481513952, guid: ee390ee869b4e724fac2f274c19088ff,
        type: 3}
      propertyPath: ColorModule.enabled
      value: 0
      objectReference: {fileID: 0}
    - target: {fileID: 1552376294481513952, guid: ee390ee869b4e724fac2f274c19088ff,
        type: 3}
      propertyPath: ColorModule.gradient.maxGradient.key1.r
      value: 1
      objectReference: {fileID: 0}
    - target: {fileID: 1552376294481513952, guid: ee390ee869b4e724fac2f274c19088ff,
        type: 3}
      propertyPath: ColorModule.gradient.maxGradient.key1.g
      value: 0
      objectReference: {fileID: 0}
    - target: {fileID: 1552376294481513952, guid: ee390ee869b4e724fac2f274c19088ff,
        type: 3}
      propertyPath: ColorModule.gradient.maxGradient.key1.b
      value: 0
      objectReference: {fileID: 0}
    - target: {fileID: 1552376294481513952, guid: ee390ee869b4e724fac2f274c19088ff,
        type: 3}
      propertyPath: ColorModule.gradient.maxGradient.m_Mode
      value: 1
      objectReference: {fileID: 0}
    - target: {fileID: 1552376294481513954, guid: ee390ee869b4e724fac2f274c19088ff,
        type: 3}
      propertyPath: ShapeModule.type
      value: 0
      objectReference: {fileID: 0}
    - target: {fileID: 1552376294481513954, guid: ee390ee869b4e724fac2f274c19088ff,
        type: 3}
      propertyPath: ShapeModule.radiusThickness
      value: 1
      objectReference: {fileID: 0}
    - target: {fileID: 1552376294481513964, guid: ee390ee869b4e724fac2f274c19088ff,
        type: 3}
      propertyPath: EmissionModule.m_Bursts.Array.size
      value: 0
      objectReference: {fileID: 0}
    - target: {fileID: 1552376294481513964, guid: ee390ee869b4e724fac2f274c19088ff,
        type: 3}
      propertyPath: EmissionModule.m_Bursts.Array.data[0].countCurve.maxCurve.m_Curve.Array.size
      value: 2
      objectReference: {fileID: 0}
    - target: {fileID: 1552376294481513964, guid: ee390ee869b4e724fac2f274c19088ff,
        type: 3}
      propertyPath: EmissionModule.m_Bursts.Array.data[0].countCurve.minCurve.m_Curve.Array.size
      value: 2
      objectReference: {fileID: 0}
    - target: {fileID: 1552376294481513964, guid: ee390ee869b4e724fac2f274c19088ff,
        type: 3}
      propertyPath: InheritVelocityModule.enabled
      value: 0
      objectReference: {fileID: 0}
    - target: {fileID: 1552376294481513964, guid: ee390ee869b4e724fac2f274c19088ff,
        type: 3}
      propertyPath: InheritVelocityModule.m_Curve.scalar
      value: 0.1
      objectReference: {fileID: 0}
    - target: {fileID: 1552376294481513964, guid: ee390ee869b4e724fac2f274c19088ff,
        type: 3}
      propertyPath: InheritVelocityModule.m_Mode
      value: 0
      objectReference: {fileID: 0}
    - target: {fileID: 1552376294481513964, guid: ee390ee869b4e724fac2f274c19088ff,
        type: 3}
      propertyPath: lengthInSec
      value: 3
      objectReference: {fileID: 0}
    - target: {fileID: 1552376294481513964, guid: ee390ee869b4e724fac2f274c19088ff,
        type: 3}
      propertyPath: InitialModule.startSize.minScalar
      value: 5
      objectReference: {fileID: 0}
    - target: {fileID: 1552376294481513964, guid: ee390ee869b4e724fac2f274c19088ff,
        type: 3}
      propertyPath: InitialModule.startSize.scalar
      value: 10
      objectReference: {fileID: 0}
    - target: {fileID: 1552376294481513964, guid: ee390ee869b4e724fac2f274c19088ff,
        type: 3}
      propertyPath: EmissionModule.m_BurstCount
      value: 0
      objectReference: {fileID: 0}
    - target: {fileID: 1552376294481513964, guid: ee390ee869b4e724fac2f274c19088ff,
        type: 3}
      propertyPath: EmissionModule.m_Bursts.Array.data[0].countCurve.scalar
      value: 30
      objectReference: {fileID: 0}
    - target: {fileID: 1552376294481513964, guid: ee390ee869b4e724fac2f274c19088ff,
        type: 3}
      propertyPath: EmissionModule.m_Bursts.Array.data[0].countCurve.minScalar
      value: 30
      objectReference: {fileID: 0}
    - target: {fileID: 1552376294481513964, guid: ee390ee869b4e724fac2f274c19088ff,
        type: 3}
      propertyPath: EmissionModule.m_Bursts.Array.data[0].countCurve.maxCurve.m_Curve.Array.data[0].value
      value: 1
      objectReference: {fileID: 0}
    - target: {fileID: 1552376294481513964, guid: ee390ee869b4e724fac2f274c19088ff,
        type: 3}
      propertyPath: EmissionModule.m_Bursts.Array.data[0].countCurve.maxCurve.m_Curve.Array.data[1].time
      value: 1
      objectReference: {fileID: 0}
    - target: {fileID: 1552376294481513964, guid: ee390ee869b4e724fac2f274c19088ff,
        type: 3}
      propertyPath: EmissionModule.m_Bursts.Array.data[0].countCurve.maxCurve.m_Curve.Array.data[1].value
      value: 1
      objectReference: {fileID: 0}
    - target: {fileID: 1552376294481513964, guid: ee390ee869b4e724fac2f274c19088ff,
        type: 3}
      propertyPath: EmissionModule.m_Bursts.Array.data[0].countCurve.maxCurve.m_PreInfinity
      value: 2
      objectReference: {fileID: 0}
    - target: {fileID: 1552376294481513964, guid: ee390ee869b4e724fac2f274c19088ff,
        type: 3}
      propertyPath: EmissionModule.m_Bursts.Array.data[0].countCurve.maxCurve.m_PostInfinity
      value: 2
      objectReference: {fileID: 0}
    - target: {fileID: 1552376294481513964, guid: ee390ee869b4e724fac2f274c19088ff,
        type: 3}
      propertyPath: EmissionModule.m_Bursts.Array.data[0].countCurve.maxCurve.m_RotationOrder
      value: 4
      objectReference: {fileID: 0}
    - target: {fileID: 1552376294481513964, guid: ee390ee869b4e724fac2f274c19088ff,
        type: 3}
      propertyPath: EmissionModule.m_Bursts.Array.data[0].countCurve.minCurve.m_Curve.Array.data[0].value
      value: 1
      objectReference: {fileID: 0}
    - target: {fileID: 1552376294481513964, guid: ee390ee869b4e724fac2f274c19088ff,
        type: 3}
      propertyPath: EmissionModule.m_Bursts.Array.data[0].countCurve.minCurve.m_Curve.Array.data[1].time
      value: 1
      objectReference: {fileID: 0}
    - target: {fileID: 1552376294481513964, guid: ee390ee869b4e724fac2f274c19088ff,
        type: 3}
      propertyPath: EmissionModule.m_Bursts.Array.data[0].countCurve.minCurve.m_Curve.Array.data[1].value
      value: 1
      objectReference: {fileID: 0}
    - target: {fileID: 1552376294481513964, guid: ee390ee869b4e724fac2f274c19088ff,
        type: 3}
      propertyPath: EmissionModule.m_Bursts.Array.data[0].countCurve.minCurve.m_PreInfinity
      value: 2
      objectReference: {fileID: 0}
    - target: {fileID: 1552376294481513964, guid: ee390ee869b4e724fac2f274c19088ff,
        type: 3}
      propertyPath: EmissionModule.m_Bursts.Array.data[0].countCurve.minCurve.m_PostInfinity
      value: 2
      objectReference: {fileID: 0}
    - target: {fileID: 1552376294481513964, guid: ee390ee869b4e724fac2f274c19088ff,
        type: 3}
      propertyPath: EmissionModule.m_Bursts.Array.data[0].countCurve.minCurve.m_RotationOrder
      value: 4
      objectReference: {fileID: 0}
    - target: {fileID: 1552376294481513964, guid: ee390ee869b4e724fac2f274c19088ff,
        type: 3}
      propertyPath: EmissionModule.m_Bursts.Array.data[0].cycleCount
      value: 1
      objectReference: {fileID: 0}
    - target: {fileID: 1552376294481513964, guid: ee390ee869b4e724fac2f274c19088ff,
        type: 3}
      propertyPath: EmissionModule.m_Bursts.Array.data[0].repeatInterval
      value: 0.01
      objectReference: {fileID: 0}
    - target: {fileID: 1552376294481513964, guid: ee390ee869b4e724fac2f274c19088ff,
        type: 3}
      propertyPath: EmissionModule.m_Bursts.Array.data[0].probability
      value: 1
      objectReference: {fileID: 0}
    - target: {fileID: 1552376294481513956, guid: ee390ee869b4e724fac2f274c19088ff,
        type: 3}
      propertyPath: InitialModule.startLifetime.scalar
      value: 2
      objectReference: {fileID: 0}
    - target: {fileID: 1552376294481513956, guid: ee390ee869b4e724fac2f274c19088ff,
        type: 3}
      propertyPath: InitialModule.startSpeed.scalar
      value: 0.4
      objectReference: {fileID: 0}
    - target: {fileID: 1552376294481513958, guid: ee390ee869b4e724fac2f274c19088ff,
        type: 3}
      propertyPath: ClampVelocityModule.enabled
      value: 0
      objectReference: {fileID: 0}
    - target: {fileID: 1552376294481513958, guid: ee390ee869b4e724fac2f274c19088ff,
        type: 3}
      propertyPath: ClampVelocityModule.drag.scalar
      value: 99
      objectReference: {fileID: 0}
    - target: {fileID: 1552376294481513958, guid: ee390ee869b4e724fac2f274c19088ff,
        type: 3}
      propertyPath: ClampVelocityModule.magnitude.scalar
      value: 1
      objectReference: {fileID: 0}
    - target: {fileID: 1552376294481513958, guid: ee390ee869b4e724fac2f274c19088ff,
        type: 3}
      propertyPath: ForceModule.enabled
      value: 1
      objectReference: {fileID: 0}
    m_RemovedComponents: []
  m_SourcePrefab: {fileID: 100100000, guid: ee390ee869b4e724fac2f274c19088ff, type: 3}
