%YAML 1.1
%TAG !u! tag:unity3d.com,2011:
--- !u!1 &4756039033987551338
GameObject:
  m_ObjectHideFlags: 0
  m_CorrespondingSourceObject: {fileID: 0}
  m_PrefabInstance: {fileID: 0}
  m_PrefabAsset: {fileID: 0}
  serializedVersion: 6
  m_Component:
  - component: {fileID: 9114124225867196180}
  - component: {fileID: 2098341915746493971}
  m_Layer: 0
  m_Name: Flare Light
  m_TagString: Untagged
  m_Icon: {fileID: 0}
  m_NavMeshLayer: 0
  m_StaticEditorFlags: 0
  m_IsActive: 1
--- !u!4 &9114124225867196180
Transform:
  m_ObjectHideFlags: 0
  m_CorrespondingSourceObject: {fileID: 0}
  m_PrefabInstance: {fileID: 0}
  m_PrefabAsset: {fileID: 0}
  m_GameObject: {fileID: 4756039033987551338}
  m_LocalRotation: {x: 0, y: 0, z: 0, w: 1}
  m_LocalPosition: {x: 0, y: 0, z: 0}
  m_LocalScale: {x: 1, y: 1, z: 1}
  m_Children: []
  m_Father: {fileID: 2777044872456292945}
  m_RootOrder: 7
  m_LocalEulerAnglesHint: {x: 0, y: 0, z: 0}
--- !u!108 &2098341915746493971
Light:
  m_ObjectHideFlags: 0
  m_CorrespondingSourceObject: {fileID: 0}
  m_PrefabInstance: {fileID: 0}
  m_PrefabAsset: {fileID: 0}
  m_GameObject: {fileID: 4756039033987551338}
  m_Enabled: 1
  serializedVersion: 10
  m_Type: 2
  m_Shape: 0
  m_Color: {r: 1, g: 0.49820787, b: 0, a: 1}
  m_Intensity: 50
  m_Range: 250
  m_SpotAngle: 30
  m_InnerSpotAngle: 21.80208
  m_CookieSize: 10
  m_Shadows:
    m_Type: 0
    m_Resolution: -1
    m_CustomResolution: -1
    m_Strength: 1
    m_Bias: 0.05
    m_NormalBias: 0.4
    m_NearPlane: 0.2
    m_CullingMatrixOverride:
      e00: 1
      e01: 0
      e02: 0
      e03: 0
      e10: 0
      e11: 1
      e12: 0
      e13: 0
      e20: 0
      e21: 0
      e22: 1
      e23: 0
      e30: 0
      e31: 0
      e32: 0
      e33: 1
    m_UseCullingMatrixOverride: 0
  m_Cookie: {fileID: 0}
  m_DrawHalo: 0
  m_Flare: {fileID: 0}
  m_RenderMode: 0
  m_CullingMask:
    serializedVersion: 2
    m_Bits: 4294967295
  m_RenderingLayerMask: 1
  m_Lightmapping: 4
  m_LightShadowCasterMode: 0
  m_AreaSize: {x: 1, y: 1}
  m_BounceIntensity: 0
  m_ColorTemperature: 6570
  m_UseColorTemperature: 0
  m_BoundingSphereOverride: {x: 0, y: 0, z: 0, w: 0}
  m_UseBoundingSphereOverride: 0
  m_ShadowRadius: 0
  m_ShadowAngle: 0
--- !u!1001 &1650574154141591707
PrefabInstance:
  m_ObjectHideFlags: 0
  serializedVersion: 2
  m_Modification:
    m_TransformParent: {fileID: 2777044872456292945}
    m_Modifications:
    - target: {fileID: 7734919358184992166, guid: a8fcfb861967f5a4db0ca8f142b3bea8,
        type: 3}
      propertyPath: RotationBySpeedModule.x.minMaxState
      value: 3
      objectReference: {fileID: 0}
    - target: {fileID: 7734919358184992166, guid: a8fcfb861967f5a4db0ca8f142b3bea8,
        type: 3}
      propertyPath: RotationBySpeedModule.y.minMaxState
      value: 3
      objectReference: {fileID: 0}
    - target: {fileID: 7734919358199118930, guid: a8fcfb861967f5a4db0ca8f142b3bea8,
        type: 3}
      propertyPath: m_LocalPosition.x
      value: 0
      objectReference: {fileID: 0}
    - target: {fileID: 7734919358199118930, guid: a8fcfb861967f5a4db0ca8f142b3bea8,
        type: 3}
      propertyPath: m_LocalPosition.y
      value: 0
      objectReference: {fileID: 0}
    - target: {fileID: 7734919358199118930, guid: a8fcfb861967f5a4db0ca8f142b3bea8,
        type: 3}
      propertyPath: m_LocalPosition.z
      value: 0
      objectReference: {fileID: 0}
    - target: {fileID: 7734919358199118930, guid: a8fcfb861967f5a4db0ca8f142b3bea8,
        type: 3}
      propertyPath: m_LocalRotation.x
      value: -0.7071068
      objectReference: {fileID: 0}
    - target: {fileID: 7734919358199118930, guid: a8fcfb861967f5a4db0ca8f142b3bea8,
        type: 3}
      propertyPath: m_LocalRotation.y
      value: 0
      objectReference: {fileID: 0}
    - target: {fileID: 7734919358199118930, guid: a8fcfb861967f5a4db0ca8f142b3bea8,
        type: 3}
      propertyPath: m_LocalRotation.z
      value: 0
      objectReference: {fileID: 0}
    - target: {fileID: 7734919358199118930, guid: a8fcfb861967f5a4db0ca8f142b3bea8,
        type: 3}
      propertyPath: m_LocalRotation.w
      value: 0.7071068
      objectReference: {fileID: 0}
    - target: {fileID: 7734919358199118930, guid: a8fcfb861967f5a4db0ca8f142b3bea8,
        type: 3}
      propertyPath: m_RootOrder
      value: 8
      objectReference: {fileID: 0}
    - target: {fileID: 7734919358199118930, guid: a8fcfb861967f5a4db0ca8f142b3bea8,
        type: 3}
      propertyPath: m_LocalEulerAnglesHint.x
      value: 0
      objectReference: {fileID: 0}
    - target: {fileID: 7734919358199118930, guid: a8fcfb861967f5a4db0ca8f142b3bea8,
        type: 3}
      propertyPath: m_LocalEulerAnglesHint.y
      value: 0
      objectReference: {fileID: 0}
    - target: {fileID: 7734919358199118930, guid: a8fcfb861967f5a4db0ca8f142b3bea8,
        type: 3}
      propertyPath: m_LocalEulerAnglesHint.z
      value: 0
      objectReference: {fileID: 0}
    - target: {fileID: 7734919358199624544, guid: a8fcfb861967f5a4db0ca8f142b3bea8,
        type: 3}
      propertyPath: m_Name
      value: Flare Smoke Sharp
      objectReference: {fileID: 0}
    m_RemovedComponents: []
  m_SourcePrefab: {fileID: 100100000, guid: a8fcfb861967f5a4db0ca8f142b3bea8, type: 3}
--- !u!1001 &2777044872456425689
PrefabInstance:
  m_ObjectHideFlags: 0
  serializedVersion: 2
  m_Modification:
    m_TransformParent: {fileID: 0}
    m_Modifications:
    - target: {fileID: 100008, guid: 7558471b1bf298d4286b9c9d4fa2142e, type: 3}
      propertyPath: m_Name
      value: Flare Sharp
      objectReference: {fileID: 0}
    - target: {fileID: 400008, guid: 7558471b1bf298d4286b9c9d4fa2142e, type: 3}
      propertyPath: m_LocalPosition.x
      value: 0
      objectReference: {fileID: 0}
    - target: {fileID: 400008, guid: 7558471b1bf298d4286b9c9d4fa2142e, type: 3}
      propertyPath: m_LocalPosition.y
      value: 0
      objectReference: {fileID: 0}
    - target: {fileID: 400008, guid: 7558471b1bf298d4286b9c9d4fa2142e, type: 3}
      propertyPath: m_LocalPosition.z
      value: 0
      objectReference: {fileID: 0}
    - target: {fileID: 400008, guid: 7558471b1bf298d4286b9c9d4fa2142e, type: 3}
      propertyPath: m_LocalRotation.x
      value: 0
      objectReference: {fileID: 0}
    - target: {fileID: 400008, guid: 7558471b1bf298d4286b9c9d4fa2142e, type: 3}
      propertyPath: m_LocalRotation.y
      value: 0
      objectReference: {fileID: 0}
    - target: {fileID: 400008, guid: 7558471b1bf298d4286b9c9d4fa2142e, type: 3}
      propertyPath: m_LocalRotation.z
      value: 0
      objectReference: {fileID: 0}
    - target: {fileID: 400008, guid: 7558471b1bf298d4286b9c9d4fa2142e, type: 3}
      propertyPath: m_LocalRotation.w
      value: 1
      objectReference: {fileID: 0}
    - target: {fileID: 400008, guid: 7558471b1bf298d4286b9c9d4fa2142e, type: 3}
      propertyPath: m_RootOrder
      value: 0
      objectReference: {fileID: 0}
    - target: {fileID: 400008, guid: 7558471b1bf298d4286b9c9d4fa2142e, type: 3}
      propertyPath: m_LocalEulerAnglesHint.x
      value: 0
      objectReference: {fileID: 0}
    - target: {fileID: 400008, guid: 7558471b1bf298d4286b9c9d4fa2142e, type: 3}
      propertyPath: m_LocalEulerAnglesHint.y
      value: 0
      objectReference: {fileID: 0}
    - target: {fileID: 400008, guid: 7558471b1bf298d4286b9c9d4fa2142e, type: 3}
      propertyPath: m_LocalEulerAnglesHint.z
      value: 0
      objectReference: {fileID: 0}
    - target: {fileID: 12300000, guid: 7558471b1bf298d4286b9c9d4fa2142e, type: 3}
      propertyPath: m_Color.r
      value: 1
      objectReference: {fileID: 0}
    - target: {fileID: 12300000, guid: 7558471b1bf298d4286b9c9d4fa2142e, type: 3}
      propertyPath: m_Color.g
      value: 1
      objectReference: {fileID: 0}
    - target: {fileID: 12300000, guid: 7558471b1bf298d4286b9c9d4fa2142e, type: 3}
      propertyPath: m_Color.b
      value: 1
      objectReference: {fileID: 0}
    - target: {fileID: 12300000, guid: 7558471b1bf298d4286b9c9d4fa2142e, type: 3}
      propertyPath: m_Flare
      value: 
      objectReference: {fileID: 12100000, guid: 1f5996656a91f4947a1dcdbbb8caec9e,
        type: 2}
    - target: {fileID: 19800000, guid: 7558471b1bf298d4286b9c9d4fa2142e, type: 3}
      propertyPath: ColorModule.gradient.maxGradient.key0.r
      value: 0.9687445
      objectReference: {fileID: 0}
    - target: {fileID: 19800000, guid: 7558471b1bf298d4286b9c9d4fa2142e, type: 3}
      propertyPath: ColorModule.gradient.maxGradient.key0.b
      value: 0.35294116
      objectReference: {fileID: 0}
    - target: {fileID: 19800000, guid: 7558471b1bf298d4286b9c9d4fa2142e, type: 3}
      propertyPath: ColorModule.gradient.maxGradient.key1.r
      value: 1
      objectReference: {fileID: 0}
    - target: {fileID: 19800000, guid: 7558471b1bf298d4286b9c9d4fa2142e, type: 3}
      propertyPath: ColorModule.gradient.maxGradient.key1.g
      value: 0.5544319
      objectReference: {fileID: 0}
    - target: {fileID: 19800000, guid: 7558471b1bf298d4286b9c9d4fa2142e, type: 3}
      propertyPath: ColorModule.gradient.maxGradient.key1.b
      value: 0.35294116
      objectReference: {fileID: 0}
    - target: {fileID: 19800000, guid: 7558471b1bf298d4286b9c9d4fa2142e, type: 3}
      propertyPath: ColorModule.gradient.maxGradient.key2.r
      value: 0.7735849
      objectReference: {fileID: 0}
    - target: {fileID: 19800000, guid: 7558471b1bf298d4286b9c9d4fa2142e, type: 3}
      propertyPath: ColorModule.gradient.maxGradient.key2.g
      value: 0.038640868
      objectReference: {fileID: 0}
    - target: {fileID: 19800000, guid: 7558471b1bf298d4286b9c9d4fa2142e, type: 3}
      propertyPath: ColorModule.gradient.maxGradient.key2.b
      value: 0
      objectReference: {fileID: 0}
    - target: {fileID: 19800000, guid: 7558471b1bf298d4286b9c9d4fa2142e, type: 3}
      propertyPath: ColorModule.gradient.maxGradient.key3.r
      value: 1
      objectReference: {fileID: 0}
    - target: {fileID: 19800000, guid: 7558471b1bf298d4286b9c9d4fa2142e, type: 3}
      propertyPath: ColorModule.gradient.maxGradient.key3.g
      value: 0.11764705
      objectReference: {fileID: 0}
    - target: {fileID: 19800000, guid: 7558471b1bf298d4286b9c9d4fa2142e, type: 3}
      propertyPath: ColorModule.gradient.maxGradient.key3.b
      value: 0.4176194
      objectReference: {fileID: 0}
    - target: {fileID: 19800002, guid: 7558471b1bf298d4286b9c9d4fa2142e, type: 3}
      propertyPath: ColorModule.gradient.maxGradient.key0.r
      value: 0.9747525
      objectReference: {fileID: 0}
    - target: {fileID: 19800002, guid: 7558471b1bf298d4286b9c9d4fa2142e, type: 3}
      propertyPath: ColorModule.gradient.maxGradient.key0.b
      value: 0.35294116
      objectReference: {fileID: 0}
    - target: {fileID: 19800002, guid: 7558471b1bf298d4286b9c9d4fa2142e, type: 3}
      propertyPath: ColorModule.gradient.maxGradient.key1.r
      value: 1
      objectReference: {fileID: 0}
    - target: {fileID: 19800002, guid: 7558471b1bf298d4286b9c9d4fa2142e, type: 3}
      propertyPath: ColorModule.gradient.maxGradient.key1.g
      value: 0.6984379
      objectReference: {fileID: 0}
    - target: {fileID: 19800002, guid: 7558471b1bf298d4286b9c9d4fa2142e, type: 3}
      propertyPath: ColorModule.gradient.maxGradient.key1.b
      value: 0.35294116
      objectReference: {fileID: 0}
    - target: {fileID: 19800002, guid: 7558471b1bf298d4286b9c9d4fa2142e, type: 3}
      propertyPath: ColorModule.gradient.maxGradient.key2.r
      value: 0.8301887
      objectReference: {fileID: 0}
    - target: {fileID: 19800002, guid: 7558471b1bf298d4286b9c9d4fa2142e, type: 3}
      propertyPath: ColorModule.gradient.maxGradient.key2.g
      value: 0.105731584
      objectReference: {fileID: 0}
    - target: {fileID: 19800002, guid: 7558471b1bf298d4286b9c9d4fa2142e, type: 3}
      propertyPath: ColorModule.gradient.maxGradient.key2.b
      value: 0.16813712
      objectReference: {fileID: 0}
    - target: {fileID: 19800004, guid: 7558471b1bf298d4286b9c9d4fa2142e, type: 3}
      propertyPath: stopAction
      value: 2
      objectReference: {fileID: 0}
    - target: {fileID: 19800006, guid: 7558471b1bf298d4286b9c9d4fa2142e, type: 3}
      propertyPath: ColorModule.gradient.maxGradient.key0.r
      value: 0.991452
      objectReference: {fileID: 0}
    - target: {fileID: 19800006, guid: 7558471b1bf298d4286b9c9d4fa2142e, type: 3}
      propertyPath: ColorModule.gradient.maxGradient.key1.r
      value: 0.990566
      objectReference: {fileID: 0}
    - target: {fileID: 19800006, guid: 7558471b1bf298d4286b9c9d4fa2142e, type: 3}
      propertyPath: ColorModule.gradient.maxGradient.key1.g
      value: 0.014017418
      objectReference: {fileID: 0}
    - target: {fileID: 19800006, guid: 7558471b1bf298d4286b9c9d4fa2142e, type: 3}
      propertyPath: ColorModule.gradient.maxGradient.key1.b
      value: 0.033959545
      objectReference: {fileID: 0}
    - target: {fileID: 19800008, guid: 7558471b1bf298d4286b9c9d4fa2142e, type: 3}
      propertyPath: ColorModule.gradient.maxGradient.key1.r
      value: 1
      objectReference: {fileID: 0}
    - target: {fileID: 19800008, guid: 7558471b1bf298d4286b9c9d4fa2142e, type: 3}
      propertyPath: ColorModule.gradient.maxGradient.key1.g
      value: 0.8217933
      objectReference: {fileID: 0}
    - target: {fileID: 19800008, guid: 7558471b1bf298d4286b9c9d4fa2142e, type: 3}
      propertyPath: ColorModule.gradient.maxGradient.key1.b
      value: 0.35294116
      objectReference: {fileID: 0}
    - target: {fileID: 19800008, guid: 7558471b1bf298d4286b9c9d4fa2142e, type: 3}
      propertyPath: ColorModule.gradient.maxGradient.key2.r
      value: 1
      objectReference: {fileID: 0}
    - target: {fileID: 19800008, guid: 7558471b1bf298d4286b9c9d4fa2142e, type: 3}
      propertyPath: ColorModule.gradient.maxGradient.key2.g
      value: 0.6929597
      objectReference: {fileID: 0}
    - target: {fileID: 19800008, guid: 7558471b1bf298d4286b9c9d4fa2142e, type: 3}
      propertyPath: ColorModule.gradient.maxGradient.key2.b
      value: 0.35294116
      objectReference: {fileID: 0}
    - target: {fileID: 19800008, guid: 7558471b1bf298d4286b9c9d4fa2142e, type: 3}
      propertyPath: ColorModule.gradient.maxGradient.key3.r
      value: 1
      objectReference: {fileID: 0}
    - target: {fileID: 19800008, guid: 7558471b1bf298d4286b9c9d4fa2142e, type: 3}
      propertyPath: ColorModule.gradient.maxGradient.key3.g
      value: 0.15219519
      objectReference: {fileID: 0}
    - target: {fileID: 19800008, guid: 7558471b1bf298d4286b9c9d4fa2142e, type: 3}
      propertyPath: ColorModule.gradient.maxGradient.key3.b
      value: 0.11764705
      objectReference: {fileID: 0}
    - target: {fileID: 19800008, guid: 7558471b1bf298d4286b9c9d4fa2142e, type: 3}
      propertyPath: ColorModule.gradient.maxGradient.key4.r
      value: 1
      objectReference: {fileID: 0}
    - target: {fileID: 19800008, guid: 7558471b1bf298d4286b9c9d4fa2142e, type: 3}
      propertyPath: ColorModule.gradient.maxGradient.key4.g
      value: 0.11764705
      objectReference: {fileID: 0}
    - target: {fileID: 19800008, guid: 7558471b1bf298d4286b9c9d4fa2142e, type: 3}
      propertyPath: ColorModule.gradient.maxGradient.key4.b
      value: 0.384599
      objectReference: {fileID: 0}
    - target: {fileID: 19800010, guid: 7558471b1bf298d4286b9c9d4fa2142e, type: 3}
      propertyPath: ColorModule.gradient.maxGradient.key1.r
      value: 0.81540793
      objectReference: {fileID: 0}
    - target: {fileID: 19800010, guid: 7558471b1bf298d4286b9c9d4fa2142e, type: 3}
      propertyPath: ColorModule.gradient.maxGradient.key1.b
      value: 0.35294116
      objectReference: {fileID: 0}
    - target: {fileID: 19800010, guid: 7558471b1bf298d4286b9c9d4fa2142e, type: 3}
      propertyPath: ColorModule.gradient.maxGradient.key2.r
      value: 1
      objectReference: {fileID: 0}
    - target: {fileID: 19800010, guid: 7558471b1bf298d4286b9c9d4fa2142e, type: 3}
      propertyPath: ColorModule.gradient.maxGradient.key2.g
      value: 0.7379371
      objectReference: {fileID: 0}
    - target: {fileID: 19800010, guid: 7558471b1bf298d4286b9c9d4fa2142e, type: 3}
      propertyPath: ColorModule.gradient.maxGradient.key2.b
      value: 0.35294116
      objectReference: {fileID: 0}
    - target: {fileID: 19800010, guid: 7558471b1bf298d4286b9c9d4fa2142e, type: 3}
      propertyPath: ColorModule.gradient.maxGradient.key3.r
      value: 0.990566
      objectReference: {fileID: 0}
    - target: {fileID: 19800010, guid: 7558471b1bf298d4286b9c9d4fa2142e, type: 3}
      propertyPath: ColorModule.gradient.maxGradient.key3.g
      value: 0.28600937
      objectReference: {fileID: 0}
    - target: {fileID: 19800010, guid: 7558471b1bf298d4286b9c9d4fa2142e, type: 3}
      propertyPath: ColorModule.gradient.maxGradient.key3.b
      value: 0.18222679
      objectReference: {fileID: 0}
    - target: {fileID: 19800010, guid: 7558471b1bf298d4286b9c9d4fa2142e, type: 3}
      propertyPath: ColorModule.gradient.maxGradient.key4.r
      value: 1
      objectReference: {fileID: 0}
    - target: {fileID: 19800010, guid: 7558471b1bf298d4286b9c9d4fa2142e, type: 3}
      propertyPath: ColorModule.gradient.maxGradient.key4.g
      value: 0.11764705
      objectReference: {fileID: 0}
    - target: {fileID: 19800010, guid: 7558471b1bf298d4286b9c9d4fa2142e, type: 3}
      propertyPath: ColorModule.gradient.maxGradient.key4.b
      value: 0.61987484
      objectReference: {fileID: 0}
    - target: {fileID: 19800012, guid: 7558471b1bf298d4286b9c9d4fa2142e, type: 3}
      propertyPath: ColorModule.gradient.maxGradient.key1.r
      value: 0.8278418
      objectReference: {fileID: 0}
    - target: {fileID: 19800012, guid: 7558471b1bf298d4286b9c9d4fa2142e, type: 3}
      propertyPath: ColorModule.gradient.maxGradient.key1.b
      value: 0.35294116
      objectReference: {fileID: 0}
    - target: {fileID: 19800012, guid: 7558471b1bf298d4286b9c9d4fa2142e, type: 3}
      propertyPath: ColorModule.gradient.maxGradient.key1.g
      value: 1
      objectReference: {fileID: 0}
    - target: {fileID: 19800012, guid: 7558471b1bf298d4286b9c9d4fa2142e, type: 3}
      propertyPath: ColorModule.gradient.maxGradient.key2.r
      value: 1
      objectReference: {fileID: 0}
    - target: {fileID: 19800012, guid: 7558471b1bf298d4286b9c9d4fa2142e, type: 3}
      propertyPath: ColorModule.gradient.maxGradient.key2.g
      value: 0.73511356
      objectReference: {fileID: 0}
    - target: {fileID: 19800012, guid: 7558471b1bf298d4286b9c9d4fa2142e, type: 3}
      propertyPath: ColorModule.gradient.maxGradient.key2.b
      value: 0.35294116
      objectReference: {fileID: 0}
    - target: {fileID: 19800012, guid: 7558471b1bf298d4286b9c9d4fa2142e, type: 3}
      propertyPath: ColorModule.gradient.maxGradient.key3.r
      value: 1
      objectReference: {fileID: 0}
    - target: {fileID: 19800012, guid: 7558471b1bf298d4286b9c9d4fa2142e, type: 3}
      propertyPath: ColorModule.gradient.maxGradient.key3.g
      value: 0.20039383
      objectReference: {fileID: 0}
    - target: {fileID: 19800012, guid: 7558471b1bf298d4286b9c9d4fa2142e, type: 3}
      propertyPath: ColorModule.gradient.maxGradient.key3.b
      value: 0.11764705
      objectReference: {fileID: 0}
    - target: {fileID: 19800012, guid: 7558471b1bf298d4286b9c9d4fa2142e, type: 3}
      propertyPath: ColorModule.gradient.maxGradient.key4.r
      value: 1
      objectReference: {fileID: 0}
    - target: {fileID: 19800012, guid: 7558471b1bf298d4286b9c9d4fa2142e, type: 3}
      propertyPath: ColorModule.gradient.maxGradient.key4.g
      value: 0.11764705
      objectReference: {fileID: 0}
    - target: {fileID: 19800012, guid: 7558471b1bf298d4286b9c9d4fa2142e, type: 3}
      propertyPath: ColorModule.gradient.maxGradient.key4.b
      value: 0.4733753
      objectReference: {fileID: 0}
    m_RemovedComponents: []
  m_SourcePrefab: {fileID: 100100000, guid: 7558471b1bf298d4286b9c9d4fa2142e, type: 3}
--- !u!4 &2777044872456292945 stripped
Transform:
  m_CorrespondingSourceObject: {fileID: 400008, guid: 7558471b1bf298d4286b9c9d4fa2142e,
    type: 3}
  m_PrefabInstance: {fileID: 2777044872456425689}
  m_PrefabAsset: {fileID: 0}
